fullcpu/fullcpu.vcd
$version Generated by VerilatedVcd $end
$date Thu Nov 24 11:29:19 2022 $end
$timescale 1ps $end

 $scope module TOP $end
  $var wire 32 v a0 [31:0] $end
  $var wire  1 t clk $end
  $var wire  1 u rst $end
  $scope module fullcpu $end
   $var wire  3 A ALUctrl [2:0] $end
   $var wire  1 B ALUsrc $end
   $var wire 32 x DATA_WIDTH [31:0] $end
   $var wire  1 p EQ $end
   $var wire 32 o ImmOp [31:0] $end
   $var wire  3 q ImmSrc [2:0] $end
   $var wire 32 ? Instr [31:0] $end
   $var wire  1 C MemWrite $end
   $var wire  1 n PCsrc $end
   $var wire  1 @ RegWrite $end
   $var wire  1 D ResultSrc $end
   $var wire 32 v a0 [31:0] $end
   $var wire  1 t clk $end
   $var wire  1 u rst $end
   $scope module blue $end
    $var wire 32 E A [31:0] $end
    $var wire 32 x ADDRESS_WIDTH [31:0] $end
    $var wire 32 x DATAOUT_WIDTH [31:0] $end
    $var wire 32 o ImmOp [31:0] $end
    $var wire  1 n PCsrc $end
    $var wire 32 ? RD [31:0] $end
    $var wire  1 t clk $end
    $var wire  1 u rst $end
    $scope module mem $end
     $var wire 32 E A [31:0] $end
     $var wire 32 x ADDRESS_WIDTH [31:0] $end
     $var wire 32 x DATAOUT_WIDTH [31:0] $end
     $var wire 32 y DATA_WIDTH [31:0] $end
     $var wire 32 ? RD [31:0] $end
     $var wire  8 # rom_array[0] [7:0] $end
     $var wire  8 - rom_array[10] [7:0] $end
     $var wire  8 . rom_array[11] [7:0] $end
     $var wire  8 / rom_array[12] [7:0] $end
     $var wire  8 0 rom_array[13] [7:0] $end
     $var wire  8 1 rom_array[14] [7:0] $end
     $var wire  8 2 rom_array[15] [7:0] $end
     $var wire  8 3 rom_array[16] [7:0] $end
     $var wire  8 4 rom_array[17] [7:0] $end
     $var wire  8 5 rom_array[18] [7:0] $end
     $var wire  8 6 rom_array[19] [7:0] $end
     $var wire  8 $ rom_array[1] [7:0] $end
     $var wire  8 7 rom_array[20] [7:0] $end
     $var wire  8 8 rom_array[21] [7:0] $end
     $var wire  8 9 rom_array[22] [7:0] $end
     $var wire  8 : rom_array[23] [7:0] $end
     $var wire  8 ; rom_array[24] [7:0] $end
     $var wire  8 < rom_array[25] [7:0] $end
     $var wire  8 = rom_array[26] [7:0] $end
     $var wire  8 > rom_array[27] [7:0] $end
     $var wire  8 % rom_array[2] [7:0] $end
     $var wire  8 & rom_array[3] [7:0] $end
     $var wire  8 ' rom_array[4] [7:0] $end
     $var wire  8 ( rom_array[5] [7:0] $end
     $var wire  8 ) rom_array[6] [7:0] $end
     $var wire  8 * rom_array[7] [7:0] $end
     $var wire  8 + rom_array[8] [7:0] $end
     $var wire  8 , rom_array[9] [7:0] $end
    $upscope $end
    $scope module pc $end
     $var wire 32 o ImmOp [31:0] $end
     $var wire 32 E PC [31:0] $end
     $var wire  1 n PCsrc $end
     $var wire 32 x address_width [31:0] $end
     $var wire  1 t clk $end
     $var wire  1 u rst $end
    $upscope $end
   $upscope $end
   $scope module controlunit $end
    $var wire  3 A ALUctrl [2:0] $end
    $var wire  1 B ALUsrc $end
    $var wire  1 p EQ $end
    $var wire  3 q ImmSrc [2:0] $end
    $var wire  1 C MemWrite $end
    $var wire  1 n PCsrc $end
    $var wire  1 @ RegWrite $end
    $var wire  1 D ResultSrc $end
    $var wire 32 z address_width [31:0] $end
    $var wire  7 F instr [6:0] $end
   $upscope $end
   $scope module signextend $end
    $var wire 32 o ImmOp [31:0] $end
    $var wire  3 q ImmSrc [2:0] $end
    $var wire 32 x address_width [31:0] $end
    $var wire 32 ? instr [31:0] $end
   $upscope $end
   $scope module topregalu $end
    $var wire 32 { ADDRESS_WIDTH [31:0] $end
    $var wire  3 A ALUCtrl [2:0] $end
    $var wire 32 J ALUop1 [31:0] $end
    $var wire 32 s ALUop2 [31:0] $end
    $var wire 32 r ALUout [31:0] $end
    $var wire  1 B ALUsrc $end
    $var wire 32 x DATA_WIDTH [31:0] $end
    $var wire 32 o ImmOp [31:0] $end
    $var wire  1 C MemWrite $end
    $var wire 32 w ReadData [31:0] $end
    $var wire  1 @ RegWrite $end
    $var wire  1 D ResultSrc $end
    $var wire 32 v a0 [31:0] $end
    $var wire  1 t clk $end
    $var wire  1 p eq $end
    $var wire  5 I rd [4:0] $end
    $var wire 32 K regOp2 [31:0] $end
    $var wire  5 G rs1 [4:0] $end
    $var wire  5 H rs2 [4:0] $end
    $scope module ALU $end
     $var wire  3 A ALUCtrl [2:0] $end
     $var wire 32 J ALUop1 [31:0] $end
     $var wire 32 s ALUop2 [31:0] $end
     $var wire 32 x DATA_WIDTH [31:0] $end
     $var wire  1 p eq $end
     $var wire 32 r out [31:0] $end
    $upscope $end
    $scope module MUX $end
     $var wire 32 x DATA_WIDTH [31:0] $end
     $var wire 32 K d0 [31:0] $end
     $var wire 32 o d1 [31:0] $end
     $var wire 32 s out [31:0] $end
     $var wire  1 B s $end
    $upscope $end
    $scope module RegFile $end
     $var wire 32 { ADDRESS_WIDTH [31:0] $end
     $var wire 32 x DATA_WIDTH [31:0] $end
     $var wire 32 v a0 [31:0] $end
     $var wire  5 G addr1 [4:0] $end
     $var wire  5 H addr2 [4:0] $end
     $var wire  5 I addr3 [4:0] $end
     $var wire  1 t clk $end
     $var wire 32 L ram_array[0] [31:0] $end
     $var wire 32 V ram_array[10] [31:0] $end
     $var wire 32 W ram_array[11] [31:0] $end
     $var wire 32 X ram_array[12] [31:0] $end
     $var wire 32 Y ram_array[13] [31:0] $end
     $var wire 32 Z ram_array[14] [31:0] $end
     $var wire 32 [ ram_array[15] [31:0] $end
     $var wire 32 \ ram_array[16] [31:0] $end
     $var wire 32 ] ram_array[17] [31:0] $end
     $var wire 32 ^ ram_array[18] [31:0] $end
     $var wire 32 _ ram_array[19] [31:0] $end
     $var wire 32 M ram_array[1] [31:0] $end
     $var wire 32 ` ram_array[20] [31:0] $end
     $var wire 32 a ram_array[21] [31:0] $end
     $var wire 32 b ram_array[22] [31:0] $end
     $var wire 32 c ram_array[23] [31:0] $end
     $var wire 32 d ram_array[24] [31:0] $end
     $var wire 32 e ram_array[25] [31:0] $end
     $var wire 32 f ram_array[26] [31:0] $end
     $var wire 32 g ram_array[27] [31:0] $end
     $var wire 32 h ram_array[28] [31:0] $end
     $var wire 32 i ram_array[29] [31:0] $end
     $var wire 32 N ram_array[2] [31:0] $end
     $var wire 32 j ram_array[30] [31:0] $end
     $var wire 32 k ram_array[31] [31:0] $end
     $var wire 32 O ram_array[3] [31:0] $end
     $var wire 32 P ram_array[4] [31:0] $end
     $var wire 32 Q ram_array[5] [31:0] $end
     $var wire 32 R ram_array[6] [31:0] $end
     $var wire 32 S ram_array[7] [31:0] $end
     $var wire 32 T ram_array[8] [31:0] $end
     $var wire 32 U ram_array[9] [31:0] $end
     $var wire 32 J rd1 [31:0] $end
     $var wire 32 K rd2 [31:0] $end
     $var wire 32 r wd3 [31:0] $end
     $var wire  1 @ we3 $end
    $upscope $end
    $scope module ResultMux $end
     $var wire 32 x DATA_WIDTH [31:0] $end
     $var wire 32 r d0 [31:0] $end
     $var wire 32 w d1 [31:0] $end
     $var wire 32 v out [31:0] $end
     $var wire  1 D s $end
    $upscope $end
    $scope module datamemory $end
     $var wire 32 x ADDRESS_WIDTH [31:0] $end
     $var wire 32 x DATA_WIDTH [31:0] $end
     $var wire 32 r addr [31:0] $end
     $var wire  1 t clk $end
     $var wire 32 l ram_array[-1] [31:0] $end
     $var wire 32 m ram_array[0] [31:0] $end
     $var wire 32 w rd [31:0] $end
     $var wire 32 K wd [31:0] $end
     $var wire  1 C wr_en $end
    $upscope $end
   $upscope $end
  $upscope $end
 $upscope $end
$enddefinitions $end


#0
b00000000 #
b00000000 $
b00000000 %
b00000000 &
b00000000 '
b00000000 (
b00000000 )
b00000000 *
b00000000 +
b00000000 ,
b00000000 -
b00000000 .
b00000000 /
b00000000 0
b00000000 1
b00000000 2
b00000000 3
b00000000 4
b00000000 5
b00000000 6
b00000000 7
b00000000 8
b00000000 9
b00000000 :
b00000000 ;
b00000000 <
b00000000 =
b00000000 >
b00000000000000000000000000000000 ?
0@
b000 A
0B
0C
0D
b00000000000000000000000000000000 E
b0000000 F
b00000 G
b00000 H
b00000 I
b00000000000000000000000000000000 J
b00000000000000000000000000000000 K
b00000000000000000000000000000000 L
b00000000000000000000000000000000 M
b00000000000000000000000000000000 N
b00000000000000000000000000000000 O
b00000000000000000000000000000000 P
b00000000000000000000000000000000 Q
b00000000000000000000000000000000 R
b00000000000000000000000000000000 S
b00000000000000000000000000000000 T
b00000000000000000000000000000000 U
b00000000000000000000000000000000 V
b00000000000000000000000000000000 W
b00000000000000000000000000000000 X
b00000000000000000000000000000000 Y
b00000000000000000000000000000000 Z
b00000000000000000000000000000000 [
b00000000000000000000000000000000 \
b00000000000000000000000000000000 ]
b00000000000000000000000000000000 ^
b00000000000000000000000000000000 _
b00000000000000000000000000000000 `
b00000000000000000000000000000000 a
b00000000000000000000000000000000 b
b00000000000000000000000000000000 c
b00000000000000000000000000000000 d
b00000000000000000000000000000000 e
b00000000000000000000000000000000 f
b00000000000000000000000000000000 g
b00000000000000000000000000000000 h
b00000000000000000000000000000000 i
b00000000000000000000000000000000 j
b00000000000000000000000000000000 k
b00000000000000000000000000000000 l
b00000000000000000000000000000000 m
0n
b00000000000000000000000000000000 o
0p
b000 q
b00000000000000000000000000000000 r
b00000000000000000000000000000000 s
1t
0u
b00000000000000000000000000000000 v
b00000000000000000000000000000000 w
b00000000000000000000000000100000 x
b00000000000000000000000000001000 y
b00000000000000000000000000000111 z
b00000000000000000000000000000101 {
#1
b00001111 #
b11110000 $
b00000011 %
b00010011 &
b00000101 )
b00010011 *
b00000101 -
b10010011 .
b00000101 0
b10000101 1
b00010011 2
b00010101 4
b10000101 5
b10010011 6
b11111110 7
b01100101 8
b10011100 9
b11100011 :
b00000101 <
b10100101 =
b00001111111100000000001100010011 ?
1@
1B
b0010011 F
b11111 H
b00110 I
b00000000000000010010001101000101 l
b00000000000000000000000011111111 o
b00000000000000000000000011111111 r
b00000000000000000000000011111111 s
0t
b00000000000000000000000011111111 v
b00000000000000010010001101000101 w
#2
b00000000000000000000010100010011 ?
b00000000000000000000000000000100 E
b00000 H
b01010 I
b00000000000000000000000011111111 R
b00000000000000000000000000000000 o
1p
b00000000000000000000000000000000 r
b00000000000000000000000000000000 s
1t
b00000000000000000000000000000000 v
b00000000000000000000000000000000 w
#3
0t
#4
b00000000000000000000010110010011 ?
b00000000000000000000000000001000 E
b01011 I
1t
#5
0t
#6
b00000000000001011000010100010011 ?
b00000000000000000000000000001100 E
b01011 G
b01010 I
1t
#7
0t
#8
b00000000000101011000010110010011 ?
b00000000000000000000000000010000 E
b00001 H
b01011 I
b00000000000000000000000000000001 o
0p
b00000000000000000000000000000001 r
b00000000000000000000000000000001 s
1t
b00000000000000000000000000000001 v
b00000000000000010010001101000101 w
#9
0t
#10
b11111110011001011001110011100011 ?
0@
0B
b00000000000000000000000000010100 E
b1100011 F
b00110 H
b11001 I
b00000000000000000000000000000001 J
b00000000000000000000000011111111 K
b00000000000000000000000000000001 W
1n
b11111111111111111111111111111000 o
b010 q
b00000000000000000000000100000000 r
b00000000000000000000000011111111 s
1t
b00000000000000000000000100000000 v
b00000000000000000000000000000000 w
#11
0t
#12
b00000000000001011000010100010011 ?
1@
1B
b00000000000000000000000000001100 E
b0010011 F
b00000 H
b01010 I
b00000000000000000000000000000000 K
0n
b00000000000000000000000000000000 o
b000 q
b00000000000000000000000000000001 r
b00000000000000000000000000000000 s
1t
b00000000000000000000000000000001 v
b00000000000000010010001101000101 w
#13
0t
#14
b00000000000101011000010110010011 ?
b00000000000000000000000000010000 E
b00001 H
b01011 I
b00000000000000000000000000000001 V
b00000000000000000000000000000001 o
1p
b00000000000000000000000000000010 r
b00000000000000000000000000000001 s
1t
b00000000000000000000000000000010 v
b00000000000000000000000000000000 w
#15
0t
#16
b11111110011001011001110011100011 ?
0@
0B
b00000000000000000000000000010100 E
b1100011 F
b00110 H
b11001 I
b00000000000000000000000000000010 J
b00000000000000000000000011111111 K
b00000000000000000000000000000010 W
1n
b11111111111111111111111111111000 o
0p
b010 q
b00000000000000000000000100000001 r
b00000000000000000000000011111111 s
1t
b00000000000000000000000100000001 v
b00000000000000010010001101000101 w
#17
0t
#18
b00000000000001011000010100010011 ?
1@
1B
b00000000000000000000000000001100 E
b0010011 F
b00000 H
b01010 I
b00000000000000000000000000000000 K
0n
b00000000000000000000000000000000 o
b000 q
b00000000000000000000000000000010 r
b00000000000000000000000000000000 s
1t
b00000000000000000000000000000010 v
b00000000000000000000000000000000 w
#19
0t
#20
b00000000000101011000010110010011 ?
b00000000000000000000000000010000 E
b00001 H
b01011 I
b00000000000000000000000000000010 V
b00000000000000000000000000000001 o
b00000000000000000000000000000011 r
b00000000000000000000000000000001 s
1t
b00000000000000000000000000000011 v
b00000000000000010010001101000101 w
#21
0t
#22
b11111110011001011001110011100011 ?
0@
0B
b00000000000000000000000000010100 E
b1100011 F
b00110 H
b11001 I
b00000000000000000000000000000011 J
b00000000000000000000000011111111 K
b00000000000000000000000000000011 W
1n
b11111111111111111111111111111000 o
b010 q
b00000000000000000000000100000010 r
b00000000000000000000000011111111 s
1t
b00000000000000000000000100000010 v
b00000000000000000000000000000000 w
#23
0t
#24
b00000000000001011000010100010011 ?
1@
1B
b00000000000000000000000000001100 E
b0010011 F
b00000 H
b01010 I
b00000000000000000000000000000000 K
0n
b00000000000000000000000000000000 o
b000 q
b00000000000000000000000000000011 r
b00000000000000000000000000000000 s
1t
b00000000000000000000000000000011 v
b00000000000000010010001101000101 w
#25
0t
#26
b00000000000101011000010110010011 ?
b00000000000000000000000000010000 E
b00001 H
b01011 I
b00000000000000000000000000000011 V
b00000000000000000000000000000001 o
b00000000000000000000000000000100 r
b00000000000000000000000000000001 s
1t
b00000000000000000000000000000100 v
b00000000000000000000000000000000 w
#27
0t
#28
b11111110011001011001110011100011 ?
0@
0B
b00000000000000000000000000010100 E
b1100011 F
b00110 H
b11001 I
b00000000000000000000000000000100 J
b00000000000000000000000011111111 K
b00000000000000000000000000000100 W
1n
b11111111111111111111111111111000 o
b010 q
b00000000000000000000000100000011 r
b00000000000000000000000011111111 s
1t
b00000000000000000000000100000011 v
b00000000000000010010001101000101 w
#29
0t
#30
b00000000000001011000010100010011 ?
1@
1B
b00000000000000000000000000001100 E
b0010011 F
b00000 H
b01010 I
b00000000000000000000000000000000 K
0n
b00000000000000000000000000000000 o
b000 q
b00000000000000000000000000000100 r
b00000000000000000000000000000000 s
1t
b00000000000000000000000000000100 v
b00000000000000000000000000000000 w
#31
0t
#32
b00000000000101011000010110010011 ?
b00000000000000000000000000010000 E
b00001 H
b01011 I
b00000000000000000000000000000100 V
b00000000000000000000000000000001 o
b00000000000000000000000000000101 r
b00000000000000000000000000000001 s
1t
b00000000000000000000000000000101 v
b00000000000000010010001101000101 w
#33
0t
#34
b11111110011001011001110011100011 ?
0@
0B
b00000000000000000000000000010100 E
b1100011 F
b00110 H
b11001 I
b00000000000000000000000000000101 J
b00000000000000000000000011111111 K
b00000000000000000000000000000101 W
1n
b11111111111111111111111111111000 o
b010 q
b00000000000000000000000100000100 r
b00000000000000000000000011111111 s
1t
b00000000000000000000000100000100 v
b00000000000000000000000000000000 w
#35
0t
#36
b00000000000001011000010100010011 ?
1@
1B
b00000000000000000000000000001100 E
b0010011 F
b00000 H
b01010 I
b00000000000000000000000000000000 K
0n
b00000000000000000000000000000000 o
b000 q
b00000000000000000000000000000101 r
b00000000000000000000000000000000 s
1t
b00000000000000000000000000000101 v
b00000000000000010010001101000101 w
#37
0t
#38
b00000000000101011000010110010011 ?
b00000000000000000000000000010000 E
b00001 H
b01011 I
b00000000000000000000000000000101 V
b00000000000000000000000000000001 o
b00000000000000000000000000000110 r
b00000000000000000000000000000001 s
1t
b00000000000000000000000000000110 v
b00000000000000000000000000000000 w
#39
0t
#40
b11111110011001011001110011100011 ?
0@
0B
b00000000000000000000000000010100 E
b1100011 F
b00110 H
b11001 I
b00000000000000000000000000000110 J
b00000000000000000000000011111111 K
b00000000000000000000000000000110 W
1n
b11111111111111111111111111111000 o
b010 q
b00000000000000000000000100000101 r
b00000000000000000000000011111111 s
1t
b00000000000000000000000100000101 v
b00000000000000010010001101000101 w
#41
0t
#42
b00000000000001011000010100010011 ?
1@
1B
b00000000000000000000000000001100 E
b0010011 F
b00000 H
b01010 I
b00000000000000000000000000000000 K
0n
b00000000000000000000000000000000 o
b000 q
b00000000000000000000000000000110 r
b00000000000000000000000000000000 s
1t
1u
b00000000000000000000000000000110 v
b00000000000000000000000000000000 w
#43
0t
#44
b00001111111100000000001100010011 ?
b00000000000000000000000000000000 E
b00000 G
b11111 H
b00110 I
b00000000000000000000000000000000 J
b00000000000000000000000000000110 V
b00000000000000000000000011111111 o
b00000000000000000000000011111111 r
b00000000000000000000000011111111 s
1t
0u
b00000000000000000000000011111111 v
b00000000000000010010001101000101 w
#45
0t
#46
b00000000000000000000010100010011 ?
b00000000000000000000000000000100 E
b00000 H
b01010 I
b00000000000000000000000000000000 o
1p
b00000000000000000000000000000000 r
b00000000000000000000000000000000 s
1t
b00000000000000000000000000000000 v
b00000000000000000000000000000000 w
#47
0t
#48
b00000000000000000000010110010011 ?
b00000000000000000000000000001000 E
b01011 I
b00000000000000000000000000000000 V
1t
#49
0t
#50
b00000000000001011000010100010011 ?
b00000000000000000000000000001100 E
b01011 G
b01010 I
b00000000000000000000000000000000 W
1t
#51
0t
#52
b00000000000101011000010110010011 ?
b00000000000000000000000000010000 E
b00001 H
b01011 I
b00000000000000000000000000000001 o
0p
b00000000000000000000000000000001 r
b00000000000000000000000000000001 s
1t
b00000000000000000000000000000001 v
b00000000000000010010001101000101 w
#53
0t
#54
b11111110011001011001110011100011 ?
0@
0B
b00000000000000000000000000010100 E
b1100011 F
b00110 H
b11001 I
b00000000000000000000000000000001 J
b00000000000000000000000011111111 K
b00000000000000000000000000000001 W
1n
b11111111111111111111111111111000 o
b010 q
b00000000000000000000000100000000 r
b00000000000000000000000011111111 s
1t
b00000000000000000000000100000000 v
b00000000000000000000000000000000 w
#55
0t
#56
b00000000000001011000010100010011 ?
1@
1B
b00000000000000000000000000001100 E
b0010011 F
b00000 H
b01010 I
b00000000000000000000000000000000 K
0n
b00000000000000000000000000000000 o
b000 q
b00000000000000000000000000000001 r
b00000000000000000000000000000000 s
1t
b00000000000000000000000000000001 v
b00000000000000010010001101000101 w
#57
0t
#58
b00000000000101011000010110010011 ?
b00000000000000000000000000010000 E
b00001 H
b01011 I
b00000000000000000000000000000001 V
b00000000000000000000000000000001 o
1p
b00000000000000000000000000000010 r
b00000000000000000000000000000001 s
1t
b00000000000000000000000000000010 v
b00000000000000000000000000000000 w
#59
0t
#60
b11111110011001011001110011100011 ?
0@
0B
b00000000000000000000000000010100 E
b1100011 F
b00110 H
b11001 I
b00000000000000000000000000000010 J
b00000000000000000000000011111111 K
b00000000000000000000000000000010 W
1n
b11111111111111111111111111111000 o
0p
b010 q
b00000000000000000000000100000001 r
b00000000000000000000000011111111 s
1t
b00000000000000000000000100000001 v
b00000000000000010010001101000101 w
#61
0t
#62
b00000000000001011000010100010011 ?
1@
1B
b00000000000000000000000000001100 E
b0010011 F
b00000 H
b01010 I
b00000000000000000000000000000000 K
0n
b00000000000000000000000000000000 o
b000 q
b00000000000000000000000000000010 r
b00000000000000000000000000000000 s
1t
b00000000000000000000000000000010 v
b00000000000000000000000000000000 w
#63
0t
#64
b00000000000101011000010110010011 ?
b00000000000000000000000000010000 E
b00001 H
b01011 I
b00000000000000000000000000000010 V
b00000000000000000000000000000001 o
b00000000000000000000000000000011 r
b00000000000000000000000000000001 s
1t
b00000000000000000000000000000011 v
b00000000000000010010001101000101 w
#65
0t
#66
b11111110011001011001110011100011 ?
0@
0B
b00000000000000000000000000010100 E
b1100011 F
b00110 H
b11001 I
b00000000000000000000000000000011 J
b00000000000000000000000011111111 K
b00000000000000000000000000000011 W
1n
b11111111111111111111111111111000 o
b010 q
b00000000000000000000000100000010 r
b00000000000000000000000011111111 s
1t
b00000000000000000000000100000010 v
b00000000000000000000000000000000 w
#67
0t
#68
b00000000000001011000010100010011 ?
1@
1B
b00000000000000000000000000001100 E
b0010011 F
b00000 H
b01010 I
b00000000000000000000000000000000 K
0n
b00000000000000000000000000000000 o
b000 q
b00000000000000000000000000000011 r
b00000000000000000000000000000000 s
1t
b00000000000000000000000000000011 v
b00000000000000010010001101000101 w
#69
0t
#70
b00000000000101011000010110010011 ?
b00000000000000000000000000010000 E
b00001 H
b01011 I
b00000000000000000000000000000011 V
b00000000000000000000000000000001 o
b00000000000000000000000000000100 r
b00000000000000000000000000000001 s
1t
b00000000000000000000000000000100 v
b00000000000000000000000000000000 w
#71
0t
#72
b11111110011001011001110011100011 ?
0@
0B
b00000000000000000000000000010100 E
b1100011 F
b00110 H
b11001 I
b00000000000000000000000000000100 J
b00000000000000000000000011111111 K
b00000000000000000000000000000100 W
1n
b11111111111111111111111111111000 o
b010 q
b00000000000000000000000100000011 r
b00000000000000000000000011111111 s
1t
b00000000000000000000000100000011 v
b00000000000000010010001101000101 w
#73
0t
#74
b00000000000001011000010100010011 ?
1@
1B
b00000000000000000000000000001100 E
b0010011 F
b00000 H
b01010 I
b00000000000000000000000000000000 K
0n
b00000000000000000000000000000000 o
b000 q
b00000000000000000000000000000100 r
b00000000000000000000000000000000 s
1t
b00000000000000000000000000000100 v
b00000000000000000000000000000000 w
#75
0t
#76
b00000000000101011000010110010011 ?
b00000000000000000000000000010000 E
b00001 H
b01011 I
b00000000000000000000000000000100 V
b00000000000000000000000000000001 o
b00000000000000000000000000000101 r
b00000000000000000000000000000001 s
1t
b00000000000000000000000000000101 v
b00000000000000010010001101000101 w
#77
0t
#78
b11111110011001011001110011100011 ?
0@
0B
b00000000000000000000000000010100 E
b1100011 F
b00110 H
b11001 I
b00000000000000000000000000000101 J
b00000000000000000000000011111111 K
b00000000000000000000000000000101 W
1n
b11111111111111111111111111111000 o
b010 q
b00000000000000000000000100000100 r
b00000000000000000000000011111111 s
1t
b00000000000000000000000100000100 v
b00000000000000000000000000000000 w
#79
0t
#80
b00000000000001011000010100010011 ?
1@
1B
b00000000000000000000000000001100 E
b0010011 F
b00000 H
b01010 I
b00000000000000000000000000000000 K
0n
b00000000000000000000000000000000 o
b000 q
b00000000000000000000000000000101 r
b00000000000000000000000000000000 s
1t
b00000000000000000000000000000101 v
b00000000000000010010001101000101 w
#81
0t
#82
b00000000000101011000010110010011 ?
b00000000000000000000000000010000 E
b00001 H
b01011 I
b00000000000000000000000000000101 V
b00000000000000000000000000000001 o
b00000000000000000000000000000110 r
b00000000000000000000000000000001 s
1t
b00000000000000000000000000000110 v
b00000000000000000000000000000000 w
#83
0t
#84
b11111110011001011001110011100011 ?
0@
0B
b00000000000000000000000000010100 E
b1100011 F
b00110 H
b11001 I
b00000000000000000000000000000110 J
b00000000000000000000000011111111 K
b00000000000000000000000000000110 W
1n
b11111111111111111111111111111000 o
b010 q
b00000000000000000000000100000101 r
b00000000000000000000000011111111 s
1t
b00000000000000000000000100000101 v
b00000000000000010010001101000101 w
#85
0t
#86
b00000000000001011000010100010011 ?
1@
1B
b00000000000000000000000000001100 E
b0010011 F
b00000 H
b01010 I
b00000000000000000000000000000000 K
0n
b00000000000000000000000000000000 o
b000 q
b00000000000000000000000000000110 r
b00000000000000000000000000000000 s
1t
b00000000000000000000000000000110 v
b00000000000000000000000000000000 w
#87
0t
#88
b00000000000101011000010110010011 ?
b00000000000000000000000000010000 E
b00001 H
b01011 I
b00000000000000000000000000000110 V
b00000000000000000000000000000001 o
b00000000000000000000000000000111 r
b00000000000000000000000000000001 s
1t
b00000000000000000000000000000111 v
b00000000000000010010001101000101 w
#89
0t
#90
b11111110011001011001110011100011 ?
0@
0B
b00000000000000000000000000010100 E
b1100011 F
b00110 H
b11001 I
b00000000000000000000000000000111 J
b00000000000000000000000011111111 K
b00000000000000000000000000000111 W
1n
b11111111111111111111111111111000 o
b010 q
b00000000000000000000000100000110 r
b00000000000000000000000011111111 s
1t
b00000000000000000000000100000110 v
b00000000000000000000000000000000 w
#91
0t
#92
b00000000000001011000010100010011 ?
1@
1B
b00000000000000000000000000001100 E
b0010011 F
b00000 H
b01010 I
b00000000000000000000000000000000 K
0n
b00000000000000000000000000000000 o
b000 q
b00000000000000000000000000000111 r
b00000000000000000000000000000000 s
1t
b00000000000000000000000000000111 v
b00000000000000010010001101000101 w
#93
0t
#94
b00000000000101011000010110010011 ?
b00000000000000000000000000010000 E
b00001 H
b01011 I
b00000000000000000000000000000111 V
b00000000000000000000000000000001 o
b00000000000000000000000000001000 r
b00000000000000000000000000000001 s
1t
b00000000000000000000000000001000 v
b00000000000000000000000000000000 w
#95
0t
#96
b11111110011001011001110011100011 ?
0@
0B
b00000000000000000000000000010100 E
b1100011 F
b00110 H
b11001 I
b00000000000000000000000000001000 J
b00000000000000000000000011111111 K
b00000000000000000000000000001000 W
1n
b11111111111111111111111111111000 o
b010 q
b00000000000000000000000100000111 r
b00000000000000000000000011111111 s
1t
b00000000000000000000000100000111 v
b00000000000000010010001101000101 w
#97
0t
#98
b00000000000001011000010100010011 ?
1@
1B
b00000000000000000000000000001100 E
b0010011 F
b00000 H
b01010 I
b00000000000000000000000000000000 K
0n
b00000000000000000000000000000000 o
b000 q
b00000000000000000000000000001000 r
b00000000000000000000000000000000 s
1t
b00000000000000000000000000001000 v
b00000000000000000000000000000000 w
#99
0t
#100
b00000000000101011000010110010011 ?
b00000000000000000000000000010000 E
b00001 H
b01011 I
b00000000000000000000000000001000 V
b00000000000000000000000000000001 o
b00000000000000000000000000001001 r
b00000000000000000000000000000001 s
1t
b00000000000000000000000000001001 v
b00000000000000010010001101000101 w
#101
0t
#102
b11111110011001011001110011100011 ?
0@
0B
b00000000000000000000000000010100 E
b1100011 F
b00110 H
b11001 I
b00000000000000000000000000001001 J
b00000000000000000000000011111111 K
b00000000000000000000000000001001 W
1n
b11111111111111111111111111111000 o
b010 q
b00000000000000000000000100001000 r
b00000000000000000000000011111111 s
1t
b00000000000000000000000100001000 v
b00000000000000000000000000000000 w
#103
0t
#104
b00000000000001011000010100010011 ?
1@
1B
b00000000000000000000000000001100 E
b0010011 F
b00000 H
b01010 I
b00000000000000000000000000000000 K
0n
b00000000000000000000000000000000 o
b000 q
b00000000000000000000000000001001 r
b00000000000000000000000000000000 s
1t
b00000000000000000000000000001001 v
b00000000000000010010001101000101 w
#105
0t
#106
b00000000000101011000010110010011 ?
b00000000000000000000000000010000 E
b00001 H
b01011 I
b00000000000000000000000000001001 V
b00000000000000000000000000000001 o
b00000000000000000000000000001010 r
b00000000000000000000000000000001 s
1t
b00000000000000000000000000001010 v
b00000000000000000000000000000000 w
#107
0t
#108
b11111110011001011001110011100011 ?
0@
0B
b00000000000000000000000000010100 E
b1100011 F
b00110 H
b11001 I
b00000000000000000000000000001010 J
b00000000000000000000000011111111 K
b00000000000000000000000000001010 W
1n
b11111111111111111111111111111000 o
b010 q
b00000000000000000000000100001001 r
b00000000000000000000000011111111 s
1t
b00000000000000000000000100001001 v
b00000000000000010010001101000101 w
#109
0t
#110
b00000000000001011000010100010011 ?
1@
1B
b00000000000000000000000000001100 E
b0010011 F
b00000 H
b01010 I
b00000000000000000000000000000000 K
0n
b00000000000000000000000000000000 o
b000 q
b00000000000000000000000000001010 r
b00000000000000000000000000000000 s
1t
b00000000000000000000000000001010 v
b00000000000000000000000000000000 w
#111
0t
#112
b00000000000101011000010110010011 ?
b00000000000000000000000000010000 E
b00001 H
b01011 I
b00000000000000000000000000001010 V
b00000000000000000000000000000001 o
b00000000000000000000000000001011 r
b00000000000000000000000000000001 s
1t
b00000000000000000000000000001011 v
b00000000000000010010001101000101 w
#113
0t
#114
b11111110011001011001110011100011 ?
0@
0B
b00000000000000000000000000010100 E
b1100011 F
b00110 H
b11001 I
b00000000000000000000000000001011 J
b00000000000000000000000011111111 K
b00000000000000000000000000001011 W
1n
b11111111111111111111111111111000 o
b010 q
b00000000000000000000000100001010 r
b00000000000000000000000011111111 s
1t
b00000000000000000000000100001010 v
b00000000000000000000000000000000 w
#115
0t
#116
b00000000000001011000010100010011 ?
1@
1B
b00000000000000000000000000001100 E
b0010011 F
b00000 H
b01010 I
b00000000000000000000000000000000 K
0n
b00000000000000000000000000000000 o
b000 q
b00000000000000000000000000001011 r
b00000000000000000000000000000000 s
1t
b00000000000000000000000000001011 v
b00000000000000010010001101000101 w
#117
0t
#118
b00000000000101011000010110010011 ?
b00000000000000000000000000010000 E
b00001 H
b01011 I
b00000000000000000000000000001011 V
b00000000000000000000000000000001 o
b00000000000000000000000000001100 r
b00000000000000000000000000000001 s
1t
b00000000000000000000000000001100 v
b00000000000000000000000000000000 w
#119
0t
#120
b11111110011001011001110011100011 ?
0@
0B
b00000000000000000000000000010100 E
b1100011 F
b00110 H
b11001 I
b00000000000000000000000000001100 J
b00000000000000000000000011111111 K
b00000000000000000000000000001100 W
1n
b11111111111111111111111111111000 o
b010 q
b00000000000000000000000100001011 r
b00000000000000000000000011111111 s
1t
b00000000000000000000000100001011 v
b00000000000000010010001101000101 w
#121
0t
#122
b00000000000001011000010100010011 ?
1@
1B
b00000000000000000000000000001100 E
b0010011 F
b00000 H
b01010 I
b00000000000000000000000000000000 K
0n
b00000000000000000000000000000000 o
b000 q
b00000000000000000000000000001100 r
b00000000000000000000000000000000 s
1t
b00000000000000000000000000001100 v
b00000000000000000000000000000000 w
#123
0t
