fullcpu/fullcpu.vcd
$version Generated by VerilatedVcd $end
$date Sun Nov 20 16:28:33 2022 $end
$timescale 1ps $end

 $scope module TOP $end
  $var wire 32 r a0 [31:0] $end
  $var wire  1 p clk $end
  $var wire  1 q rst $end
  $scope module fullcpu $end
   $var wire  3 A ALUctrl [2:0] $end
   $var wire  1 B ALUsrc $end
   $var wire 32 s DATA_WIDTH [31:0] $end
   $var wire  1 l EQ $end
   $var wire 32 k ImmOp [31:0] $end
   $var wire  1 m ImmSrc $end
   $var wire 32 ? Instr [31:0] $end
   $var wire  1 j PCsrc $end
   $var wire  1 @ RegWrite $end
   $var wire 32 r a0 [31:0] $end
   $var wire  1 p clk $end
   $var wire  1 q rst $end
   $scope module blue $end
    $var wire 32 C A [31:0] $end
    $var wire 32 s ADDRESS_WIDTH [31:0] $end
    $var wire 32 s DATAOUT_WIDTH [31:0] $end
    $var wire 32 k ImmOp [31:0] $end
    $var wire  1 j PCsrc $end
    $var wire 32 ? RD [31:0] $end
    $var wire  1 p clk $end
    $var wire  1 q rst $end
    $scope module mem $end
     $var wire 32 C A [31:0] $end
     $var wire 32 s ADDRESS_WIDTH [31:0] $end
     $var wire 32 s DATAOUT_WIDTH [31:0] $end
     $var wire 32 t DATA_WIDTH [31:0] $end
     $var wire 32 ? RD [31:0] $end
     $var wire  8 # rom_array[0] [7:0] $end
     $var wire  8 - rom_array[10] [7:0] $end
     $var wire  8 . rom_array[11] [7:0] $end
     $var wire  8 / rom_array[12] [7:0] $end
     $var wire  8 0 rom_array[13] [7:0] $end
     $var wire  8 1 rom_array[14] [7:0] $end
     $var wire  8 2 rom_array[15] [7:0] $end
     $var wire  8 3 rom_array[16] [7:0] $end
     $var wire  8 4 rom_array[17] [7:0] $end
     $var wire  8 5 rom_array[18] [7:0] $end
     $var wire  8 6 rom_array[19] [7:0] $end
     $var wire  8 $ rom_array[1] [7:0] $end
     $var wire  8 7 rom_array[20] [7:0] $end
     $var wire  8 8 rom_array[21] [7:0] $end
     $var wire  8 9 rom_array[22] [7:0] $end
     $var wire  8 : rom_array[23] [7:0] $end
     $var wire  8 ; rom_array[24] [7:0] $end
     $var wire  8 < rom_array[25] [7:0] $end
     $var wire  8 = rom_array[26] [7:0] $end
     $var wire  8 > rom_array[27] [7:0] $end
     $var wire  8 % rom_array[2] [7:0] $end
     $var wire  8 & rom_array[3] [7:0] $end
     $var wire  8 ' rom_array[4] [7:0] $end
     $var wire  8 ( rom_array[5] [7:0] $end
     $var wire  8 ) rom_array[6] [7:0] $end
     $var wire  8 * rom_array[7] [7:0] $end
     $var wire  8 + rom_array[8] [7:0] $end
     $var wire  8 , rom_array[9] [7:0] $end
    $upscope $end
    $scope module pc $end
     $var wire 32 k ImmOp [31:0] $end
     $var wire 32 C PC [31:0] $end
     $var wire  1 j PCsrc $end
     $var wire 32 s address_width [31:0] $end
     $var wire  1 p clk $end
     $var wire  1 q rst $end
    $upscope $end
   $upscope $end
   $scope module controlunit $end
    $var wire  3 A ALUctrl [2:0] $end
    $var wire  1 B ALUsrc $end
    $var wire  1 l EQ $end
    $var wire  1 m ImmSrc $end
    $var wire  1 j PCsrc $end
    $var wire  1 @ RegWrite $end
    $var wire 32 u address_width [31:0] $end
    $var wire  7 D instr [6:0] $end
   $upscope $end
   $scope module signextend $end
    $var wire 32 k ImmOp [31:0] $end
    $var wire  1 m ImmSrc $end
    $var wire 32 s address_width [31:0] $end
    $var wire 32 ? instr [31:0] $end
   $upscope $end
   $scope module topregalu $end
    $var wire 32 v ADDRESS_WIDTH [31:0] $end
    $var wire  3 A ALUCtrl [2:0] $end
    $var wire 32 H ALUop1 [31:0] $end
    $var wire 32 o ALUop2 [31:0] $end
    $var wire 32 n ALUout [31:0] $end
    $var wire  1 B ALUsrc $end
    $var wire 32 s DATA_WIDTH [31:0] $end
    $var wire 32 k ImmOp [31:0] $end
    $var wire  1 @ RegWrite $end
    $var wire 32 r a0 [31:0] $end
    $var wire  1 p clk $end
    $var wire  1 l eq $end
    $var wire  5 G rd [4:0] $end
    $var wire 32 I regOp2 [31:0] $end
    $var wire  5 E rs1 [4:0] $end
    $var wire  5 F rs2 [4:0] $end
    $scope module ALU $end
     $var wire  3 A ALUCtrl [2:0] $end
     $var wire 32 H ALUop1 [31:0] $end
     $var wire 32 o ALUop2 [31:0] $end
     $var wire 32 s DATA_WIDTH [31:0] $end
     $var wire  1 l eq $end
     $var wire 32 n out [31:0] $end
    $upscope $end
    $scope module MUX $end
     $var wire 32 s DATA_WIDTH [31:0] $end
     $var wire 32 I d0 [31:0] $end
     $var wire 32 k d1 [31:0] $end
     $var wire 32 o out [31:0] $end
     $var wire  1 B s $end
    $upscope $end
    $scope module RegFile $end
     $var wire 32 v ADDRESS_WIDTH [31:0] $end
     $var wire 32 s DATA_WIDTH [31:0] $end
     $var wire 32 r a0 [31:0] $end
     $var wire  5 E addr1 [4:0] $end
     $var wire  5 F addr2 [4:0] $end
     $var wire  5 G addr3 [4:0] $end
     $var wire  1 p clk $end
     $var wire 32 J ram_array[0] [31:0] $end
     $var wire 32 T ram_array[10] [31:0] $end
     $var wire 32 U ram_array[11] [31:0] $end
     $var wire 32 V ram_array[12] [31:0] $end
     $var wire 32 W ram_array[13] [31:0] $end
     $var wire 32 X ram_array[14] [31:0] $end
     $var wire 32 Y ram_array[15] [31:0] $end
     $var wire 32 Z ram_array[16] [31:0] $end
     $var wire 32 [ ram_array[17] [31:0] $end
     $var wire 32 \ ram_array[18] [31:0] $end
     $var wire 32 ] ram_array[19] [31:0] $end
     $var wire 32 K ram_array[1] [31:0] $end
     $var wire 32 ^ ram_array[20] [31:0] $end
     $var wire 32 _ ram_array[21] [31:0] $end
     $var wire 32 ` ram_array[22] [31:0] $end
     $var wire 32 a ram_array[23] [31:0] $end
     $var wire 32 b ram_array[24] [31:0] $end
     $var wire 32 c ram_array[25] [31:0] $end
     $var wire 32 d ram_array[26] [31:0] $end
     $var wire 32 e ram_array[27] [31:0] $end
     $var wire 32 f ram_array[28] [31:0] $end
     $var wire 32 g ram_array[29] [31:0] $end
     $var wire 32 L ram_array[2] [31:0] $end
     $var wire 32 h ram_array[30] [31:0] $end
     $var wire 32 i ram_array[31] [31:0] $end
     $var wire 32 M ram_array[3] [31:0] $end
     $var wire 32 N ram_array[4] [31:0] $end
     $var wire 32 O ram_array[5] [31:0] $end
     $var wire 32 P ram_array[6] [31:0] $end
     $var wire 32 Q ram_array[7] [31:0] $end
     $var wire 32 R ram_array[8] [31:0] $end
     $var wire 32 S ram_array[9] [31:0] $end
     $var wire 32 H rd1 [31:0] $end
     $var wire 32 I rd2 [31:0] $end
     $var wire 32 n wd3 [31:0] $end
     $var wire  1 @ we3 $end
    $upscope $end
   $upscope $end
  $upscope $end
 $upscope $end
$enddefinitions $end


#0
b00000000 #
b00000000 $
b00000000 %
b00000000 &
b00000000 '
b00000000 (
b00000000 )
b00000000 *
b00000000 +
b00000000 ,
b00000000 -
b00000000 .
b00000000 /
b00000000 0
b00000000 1
b00000000 2
b00000000 3
b00000000 4
b00000000 5
b00000000 6
b00000000 7
b00000000 8
b00000000 9
b00000000 :
b00000000 ;
b00000000 <
b00000000 =
b00000000 >
b00000000000000000000000000000000 ?
0@
b000 A
0B
b00000000000000000000000000000000 C
b0000000 D
b00000 E
b00000 F
b00000 G
b00000000000000000000000000000000 H
b00000000000000000000000000000000 I
b00000000000000000000000000000000 J
b00000000000000000000000000000000 K
b00000000000000000000000000000000 L
b00000000000000000000000000000000 M
b00000000000000000000000000000000 N
b00000000000000000000000000000000 O
b00000000000000000000000000000000 P
b00000000000000000000000000000000 Q
b00000000000000000000000000000000 R
b00000000000000000000000000000000 S
b00000000000000000000000000000000 T
b00000000000000000000000000000000 U
b00000000000000000000000000000000 V
b00000000000000000000000000000000 W
b00000000000000000000000000000000 X
b00000000000000000000000000000000 Y
b00000000000000000000000000000000 Z
b00000000000000000000000000000000 [
b00000000000000000000000000000000 \
b00000000000000000000000000000000 ]
b00000000000000000000000000000000 ^
b00000000000000000000000000000000 _
b00000000000000000000000000000000 `
b00000000000000000000000000000000 a
b00000000000000000000000000000000 b
b00000000000000000000000000000000 c
b00000000000000000000000000000000 d
b00000000000000000000000000000000 e
b00000000000000000000000000000000 f
b00000000000000000000000000000000 g
b00000000000000000000000000000000 h
b00000000000000000000000000000000 i
0j
b00000000000000000000000000000000 k
0l
0m
b00000000000000000000000000000000 n
b00000000000000000000000000000000 o
1p
0q
b00000000000000000000000000000000 r
b00000000000000000000000000100000 s
b00000000000000000000000000001000 t
b00000000000000000000000000000111 u
b00000000000000000000000000000101 v
#1
b00001111 #
b11110000 $
b00000011 %
b00010011 &
b00000101 )
b00010011 *
b00000101 -
b10010011 .
b00000101 0
b10000101 1
b00010011 2
b00010101 4
b10000101 5
b10010011 6
b11111110 7
b01100101 8
b10011100 9
b11100011 :
b11111110 ;
b00000011 <
b00011000 =
b00001111111100000000001100010011 ?
1@
1B
b0010011 D
b11111 F
b00110 G
b00000000000000000000000011111111 k
1m
b00000000000000000000000011111111 n
b00000000000000000000000011111111 o
0p
#2
b00000000000000000000010100010011 ?
b00000000000000000000000000000100 C
b00000 F
b01010 G
b00000000000000000000000011111111 P
b00000000000000000000000000000000 k
1l
b00000000000000000000000000000000 n
b00000000000000000000000000000000 o
1p
#3
0p
#4
b00000000000000000000010110010011 ?
b00000000000000000000000000001000 C
b01011 G
1p
#5
0p
#6
b00000000000001011000010100010011 ?
b00000000000000000000000000001100 C
b01011 E
b01010 G
1p
#7
0p
#8
b00000000000101011000010110010011 ?
b00000000000000000000000000010000 C
b00001 F
b01011 G
b00000000000000000000000000000001 k
0l
b00000000000000000000000000000001 n
b00000000000000000000000000000001 o
1p
#9
0p
#10
b11111110011001011001110011100011 ?
0@
0B
b00000000000000000000000000010100 C
b1100011 D
b00110 F
b11001 G
b00000000000000000000000000000001 H
b00000000000000000000000011111111 I
b00000000000000000000000000000001 U
1j
b11111111111111111111111111111000 k
0m
b00000000000000000000000100000000 n
b00000000000000000000000011111111 o
1p
#11
0p
#12
b00000000000001011000010100010011 ?
1@
1B
b00000000000000000000000000001100 C
b0010011 D
b00000 F
b01010 G
b00000000000000000000000000000000 I
0j
b00000000000000000000000000000000 k
1m
b00000000000000000000000000000001 n
b00000000000000000000000000000000 o
1p
#13
0p
#14
b00000000000101011000010110010011 ?
b00000000000000000000000000010000 C
b00001 F
b01011 G
b00000000000000000000000000000001 T
b00000000000000000000000000000001 k
1l
b00000000000000000000000000000010 n
b00000000000000000000000000000001 o
1p
b00000000000000000000000000000001 r
#15
0p
#16
b11111110011001011001110011100011 ?
0@
0B
b00000000000000000000000000010100 C
b1100011 D
b00110 F
b11001 G
b00000000000000000000000000000010 H
b00000000000000000000000011111111 I
b00000000000000000000000000000010 U
1j
b11111111111111111111111111111000 k
0l
0m
b00000000000000000000000100000001 n
b00000000000000000000000011111111 o
1p
#17
0p
#18
b00000000000001011000010100010011 ?
1@
1B
b00000000000000000000000000001100 C
b0010011 D
b00000 F
b01010 G
b00000000000000000000000000000000 I
0j
b00000000000000000000000000000000 k
1m
b00000000000000000000000000000010 n
b00000000000000000000000000000000 o
1p
#19
0p
#20
b00000000000101011000010110010011 ?
b00000000000000000000000000010000 C
b00001 F
b01011 G
b00000000000000000000000000000010 T
b00000000000000000000000000000001 k
b00000000000000000000000000000011 n
b00000000000000000000000000000001 o
1p
b00000000000000000000000000000010 r
#21
0p
#22
b11111110011001011001110011100011 ?
0@
0B
b00000000000000000000000000010100 C
b1100011 D
b00110 F
b11001 G
b00000000000000000000000000000011 H
b00000000000000000000000011111111 I
b00000000000000000000000000000011 U
1j
b11111111111111111111111111111000 k
0m
b00000000000000000000000100000010 n
b00000000000000000000000011111111 o
1p
#23
0p
#24
b00000000000001011000010100010011 ?
1@
1B
b00000000000000000000000000001100 C
b0010011 D
b00000 F
b01010 G
b00000000000000000000000000000000 I
0j
b00000000000000000000000000000000 k
1m
b00000000000000000000000000000011 n
b00000000000000000000000000000000 o
1p
#25
0p
#26
b00000000000101011000010110010011 ?
b00000000000000000000000000010000 C
b00001 F
b01011 G
b00000000000000000000000000000011 T
b00000000000000000000000000000001 k
b00000000000000000000000000000100 n
b00000000000000000000000000000001 o
1p
b00000000000000000000000000000011 r
#27
0p
#28
b11111110011001011001110011100011 ?
0@
0B
b00000000000000000000000000010100 C
b1100011 D
b00110 F
b11001 G
b00000000000000000000000000000100 H
b00000000000000000000000011111111 I
b00000000000000000000000000000100 U
1j
b11111111111111111111111111111000 k
0m
b00000000000000000000000100000011 n
b00000000000000000000000011111111 o
1p
#29
0p
#30
b00000000000001011000010100010011 ?
1@
1B
b00000000000000000000000000001100 C
b0010011 D
b00000 F
b01010 G
b00000000000000000000000000000000 I
0j
b00000000000000000000000000000000 k
1m
b00000000000000000000000000000100 n
b00000000000000000000000000000000 o
1p
#31
0p
#32
b00000000000101011000010110010011 ?
b00000000000000000000000000010000 C
b00001 F
b01011 G
b00000000000000000000000000000100 T
b00000000000000000000000000000001 k
b00000000000000000000000000000101 n
b00000000000000000000000000000001 o
1p
b00000000000000000000000000000100 r
#33
0p
#34
b11111110011001011001110011100011 ?
0@
0B
b00000000000000000000000000010100 C
b1100011 D
b00110 F
b11001 G
b00000000000000000000000000000101 H
b00000000000000000000000011111111 I
b00000000000000000000000000000101 U
1j
b11111111111111111111111111111000 k
0m
b00000000000000000000000100000100 n
b00000000000000000000000011111111 o
1p
#35
0p
#36
b00000000000001011000010100010011 ?
1@
1B
b00000000000000000000000000001100 C
b0010011 D
b00000 F
b01010 G
b00000000000000000000000000000000 I
0j
b00000000000000000000000000000000 k
1m
b00000000000000000000000000000101 n
b00000000000000000000000000000000 o
1p
#37
0p
#38
b00000000000101011000010110010011 ?
b00000000000000000000000000010000 C
b00001 F
b01011 G
b00000000000000000000000000000101 T
b00000000000000000000000000000001 k
b00000000000000000000000000000110 n
b00000000000000000000000000000001 o
1p
b00000000000000000000000000000101 r
#39
0p
#40
b11111110011001011001110011100011 ?
0@
0B
b00000000000000000000000000010100 C
b1100011 D
b00110 F
b11001 G
b00000000000000000000000000000110 H
b00000000000000000000000011111111 I
b00000000000000000000000000000110 U
1j
b11111111111111111111111111111000 k
0m
b00000000000000000000000100000101 n
b00000000000000000000000011111111 o
1p
#41
0p
#42
b00000000000001011000010100010011 ?
1@
1B
b00000000000000000000000000001100 C
b0010011 D
b00000 F
b01010 G
b00000000000000000000000000000000 I
0j
b00000000000000000000000000000000 k
1m
b00000000000000000000000000000110 n
b00000000000000000000000000000000 o
1p
1q
#43
0p
#44
b00001111111100000000001100010011 ?
b00000000000000000000000000000000 C
b00000 E
b11111 F
b00110 G
b00000000000000000000000000000000 H
b00000000000000000000000000000110 T
b00000000000000000000000011111111 k
b00000000000000000000000011111111 n
b00000000000000000000000011111111 o
1p
0q
b00000000000000000000000000000110 r
#45
0p
#46
b00000000000000000000010100010011 ?
b00000000000000000000000000000100 C
b00000 F
b01010 G
b00000000000000000000000000000000 k
1l
b00000000000000000000000000000000 n
b00000000000000000000000000000000 o
1p
#47
0p
#48
b00000000000000000000010110010011 ?
b00000000000000000000000000001000 C
b01011 G
b00000000000000000000000000000000 T
1p
b00000000000000000000000000000000 r
#49
0p
#50
b00000000000001011000010100010011 ?
b00000000000000000000000000001100 C
b01011 E
b01010 G
b00000000000000000000000000000000 U
1p
#51
0p
#52
b00000000000101011000010110010011 ?
b00000000000000000000000000010000 C
b00001 F
b01011 G
b00000000000000000000000000000001 k
0l
b00000000000000000000000000000001 n
b00000000000000000000000000000001 o
1p
#53
0p
#54
b11111110011001011001110011100011 ?
0@
0B
b00000000000000000000000000010100 C
b1100011 D
b00110 F
b11001 G
b00000000000000000000000000000001 H
b00000000000000000000000011111111 I
b00000000000000000000000000000001 U
1j
b11111111111111111111111111111000 k
0m
b00000000000000000000000100000000 n
b00000000000000000000000011111111 o
1p
#55
0p
#56
b00000000000001011000010100010011 ?
1@
1B
b00000000000000000000000000001100 C
b0010011 D
b00000 F
b01010 G
b00000000000000000000000000000000 I
0j
b00000000000000000000000000000000 k
1m
b00000000000000000000000000000001 n
b00000000000000000000000000000000 o
1p
#57
0p
#58
b00000000000101011000010110010011 ?
b00000000000000000000000000010000 C
b00001 F
b01011 G
b00000000000000000000000000000001 T
b00000000000000000000000000000001 k
1l
b00000000000000000000000000000010 n
b00000000000000000000000000000001 o
1p
b00000000000000000000000000000001 r
#59
0p
#60
b11111110011001011001110011100011 ?
0@
0B
b00000000000000000000000000010100 C
b1100011 D
b00110 F
b11001 G
b00000000000000000000000000000010 H
b00000000000000000000000011111111 I
b00000000000000000000000000000010 U
1j
b11111111111111111111111111111000 k
0l
0m
b00000000000000000000000100000001 n
b00000000000000000000000011111111 o
1p
#61
0p
#62
b00000000000001011000010100010011 ?
1@
1B
b00000000000000000000000000001100 C
b0010011 D
b00000 F
b01010 G
b00000000000000000000000000000000 I
0j
b00000000000000000000000000000000 k
1m
b00000000000000000000000000000010 n
b00000000000000000000000000000000 o
1p
#63
0p
#64
b00000000000101011000010110010011 ?
b00000000000000000000000000010000 C
b00001 F
b01011 G
b00000000000000000000000000000010 T
b00000000000000000000000000000001 k
b00000000000000000000000000000011 n
b00000000000000000000000000000001 o
1p
b00000000000000000000000000000010 r
#65
0p
#66
b11111110011001011001110011100011 ?
0@
0B
b00000000000000000000000000010100 C
b1100011 D
b00110 F
b11001 G
b00000000000000000000000000000011 H
b00000000000000000000000011111111 I
b00000000000000000000000000000011 U
1j
b11111111111111111111111111111000 k
0m
b00000000000000000000000100000010 n
b00000000000000000000000011111111 o
1p
#67
0p
#68
b00000000000001011000010100010011 ?
1@
1B
b00000000000000000000000000001100 C
b0010011 D
b00000 F
b01010 G
b00000000000000000000000000000000 I
0j
b00000000000000000000000000000000 k
1m
b00000000000000000000000000000011 n
b00000000000000000000000000000000 o
1p
#69
0p
#70
b00000000000101011000010110010011 ?
b00000000000000000000000000010000 C
b00001 F
b01011 G
b00000000000000000000000000000011 T
b00000000000000000000000000000001 k
b00000000000000000000000000000100 n
b00000000000000000000000000000001 o
1p
b00000000000000000000000000000011 r
#71
0p
#72
b11111110011001011001110011100011 ?
0@
0B
b00000000000000000000000000010100 C
b1100011 D
b00110 F
b11001 G
b00000000000000000000000000000100 H
b00000000000000000000000011111111 I
b00000000000000000000000000000100 U
1j
b11111111111111111111111111111000 k
0m
b00000000000000000000000100000011 n
b00000000000000000000000011111111 o
1p
#73
0p
#74
b00000000000001011000010100010011 ?
1@
1B
b00000000000000000000000000001100 C
b0010011 D
b00000 F
b01010 G
b00000000000000000000000000000000 I
0j
b00000000000000000000000000000000 k
1m
b00000000000000000000000000000100 n
b00000000000000000000000000000000 o
1p
#75
0p
#76
b00000000000101011000010110010011 ?
b00000000000000000000000000010000 C
b00001 F
b01011 G
b00000000000000000000000000000100 T
b00000000000000000000000000000001 k
b00000000000000000000000000000101 n
b00000000000000000000000000000001 o
1p
b00000000000000000000000000000100 r
#77
0p
#78
b11111110011001011001110011100011 ?
0@
0B
b00000000000000000000000000010100 C
b1100011 D
b00110 F
b11001 G
b00000000000000000000000000000101 H
b00000000000000000000000011111111 I
b00000000000000000000000000000101 U
1j
b11111111111111111111111111111000 k
0m
b00000000000000000000000100000100 n
b00000000000000000000000011111111 o
1p
#79
0p
#80
b00000000000001011000010100010011 ?
1@
1B
b00000000000000000000000000001100 C
b0010011 D
b00000 F
b01010 G
b00000000000000000000000000000000 I
0j
b00000000000000000000000000000000 k
1m
b00000000000000000000000000000101 n
b00000000000000000000000000000000 o
1p
#81
0p
#82
b00000000000101011000010110010011 ?
b00000000000000000000000000010000 C
b00001 F
b01011 G
b00000000000000000000000000000101 T
b00000000000000000000000000000001 k
b00000000000000000000000000000110 n
b00000000000000000000000000000001 o
1p
b00000000000000000000000000000101 r
#83
0p
#84
b11111110011001011001110011100011 ?
0@
0B
b00000000000000000000000000010100 C
b1100011 D
b00110 F
b11001 G
b00000000000000000000000000000110 H
b00000000000000000000000011111111 I
b00000000000000000000000000000110 U
1j
b11111111111111111111111111111000 k
0m
b00000000000000000000000100000101 n
b00000000000000000000000011111111 o
1p
#85
0p
#86
b00000000000001011000010100010011 ?
1@
1B
b00000000000000000000000000001100 C
b0010011 D
b00000 F
b01010 G
b00000000000000000000000000000000 I
0j
b00000000000000000000000000000000 k
1m
b00000000000000000000000000000110 n
b00000000000000000000000000000000 o
1p
#87
0p
#88
b00000000000101011000010110010011 ?
b00000000000000000000000000010000 C
b00001 F
b01011 G
b00000000000000000000000000000110 T
b00000000000000000000000000000001 k
b00000000000000000000000000000111 n
b00000000000000000000000000000001 o
1p
b00000000000000000000000000000110 r
#89
0p
#90
b11111110011001011001110011100011 ?
0@
0B
b00000000000000000000000000010100 C
b1100011 D
b00110 F
b11001 G
b00000000000000000000000000000111 H
b00000000000000000000000011111111 I
b00000000000000000000000000000111 U
1j
b11111111111111111111111111111000 k
0m
b00000000000000000000000100000110 n
b00000000000000000000000011111111 o
1p
#91
0p
#92
b00000000000001011000010100010011 ?
1@
1B
b00000000000000000000000000001100 C
b0010011 D
b00000 F
b01010 G
b00000000000000000000000000000000 I
0j
b00000000000000000000000000000000 k
1m
b00000000000000000000000000000111 n
b00000000000000000000000000000000 o
1p
#93
0p
#94
b00000000000101011000010110010011 ?
b00000000000000000000000000010000 C
b00001 F
b01011 G
b00000000000000000000000000000111 T
b00000000000000000000000000000001 k
b00000000000000000000000000001000 n
b00000000000000000000000000000001 o
1p
b00000000000000000000000000000111 r
#95
0p
#96
b11111110011001011001110011100011 ?
0@
0B
b00000000000000000000000000010100 C
b1100011 D
b00110 F
b11001 G
b00000000000000000000000000001000 H
b00000000000000000000000011111111 I
b00000000000000000000000000001000 U
1j
b11111111111111111111111111111000 k
0m
b00000000000000000000000100000111 n
b00000000000000000000000011111111 o
1p
#97
0p
#98
b00000000000001011000010100010011 ?
1@
1B
b00000000000000000000000000001100 C
b0010011 D
b00000 F
b01010 G
b00000000000000000000000000000000 I
0j
b00000000000000000000000000000000 k
1m
b00000000000000000000000000001000 n
b00000000000000000000000000000000 o
1p
#99
0p
#100
b00000000000101011000010110010011 ?
b00000000000000000000000000010000 C
b00001 F
b01011 G
b00000000000000000000000000001000 T
b00000000000000000000000000000001 k
b00000000000000000000000000001001 n
b00000000000000000000000000000001 o
1p
b00000000000000000000000000001000 r
#101
0p
#102
b11111110011001011001110011100011 ?
0@
0B
b00000000000000000000000000010100 C
b1100011 D
b00110 F
b11001 G
b00000000000000000000000000001001 H
b00000000000000000000000011111111 I
b00000000000000000000000000001001 U
1j
b11111111111111111111111111111000 k
0m
b00000000000000000000000100001000 n
b00000000000000000000000011111111 o
1p
#103
0p
#104
b00000000000001011000010100010011 ?
1@
1B
b00000000000000000000000000001100 C
b0010011 D
b00000 F
b01010 G
b00000000000000000000000000000000 I
0j
b00000000000000000000000000000000 k
1m
b00000000000000000000000000001001 n
b00000000000000000000000000000000 o
1p
#105
0p
#106
b00000000000101011000010110010011 ?
b00000000000000000000000000010000 C
b00001 F
b01011 G
b00000000000000000000000000001001 T
b00000000000000000000000000000001 k
b00000000000000000000000000001010 n
b00000000000000000000000000000001 o
1p
b00000000000000000000000000001001 r
#107
0p
#108
b11111110011001011001110011100011 ?
0@
0B
b00000000000000000000000000010100 C
b1100011 D
b00110 F
b11001 G
b00000000000000000000000000001010 H
b00000000000000000000000011111111 I
b00000000000000000000000000001010 U
1j
b11111111111111111111111111111000 k
0m
b00000000000000000000000100001001 n
b00000000000000000000000011111111 o
1p
#109
0p
#110
b00000000000001011000010100010011 ?
1@
1B
b00000000000000000000000000001100 C
b0010011 D
b00000 F
b01010 G
b00000000000000000000000000000000 I
0j
b00000000000000000000000000000000 k
1m
b00000000000000000000000000001010 n
b00000000000000000000000000000000 o
1p
#111
0p
#112
b00000000000101011000010110010011 ?
b00000000000000000000000000010000 C
b00001 F
b01011 G
b00000000000000000000000000001010 T
b00000000000000000000000000000001 k
b00000000000000000000000000001011 n
b00000000000000000000000000000001 o
1p
b00000000000000000000000000001010 r
#113
0p
#114
b11111110011001011001110011100011 ?
0@
0B
b00000000000000000000000000010100 C
b1100011 D
b00110 F
b11001 G
b00000000000000000000000000001011 H
b00000000000000000000000011111111 I
b00000000000000000000000000001011 U
1j
b11111111111111111111111111111000 k
0m
b00000000000000000000000100001010 n
b00000000000000000000000011111111 o
1p
#115
0p
#116
b00000000000001011000010100010011 ?
1@
1B
b00000000000000000000000000001100 C
b0010011 D
b00000 F
b01010 G
b00000000000000000000000000000000 I
0j
b00000000000000000000000000000000 k
1m
b00000000000000000000000000001011 n
b00000000000000000000000000000000 o
1p
#117
0p
#118
b00000000000101011000010110010011 ?
b00000000000000000000000000010000 C
b00001 F
b01011 G
b00000000000000000000000000001011 T
b00000000000000000000000000000001 k
b00000000000000000000000000001100 n
b00000000000000000000000000000001 o
1p
b00000000000000000000000000001011 r
#119
0p
#120
b11111110011001011001110011100011 ?
0@
0B
b00000000000000000000000000010100 C
b1100011 D
b00110 F
b11001 G
b00000000000000000000000000001100 H
b00000000000000000000000011111111 I
b00000000000000000000000000001100 U
1j
b11111111111111111111111111111000 k
0m
b00000000000000000000000100001011 n
b00000000000000000000000011111111 o
1p
#121
0p
#122
b00000000000001011000010100010011 ?
1@
1B
b00000000000000000000000000001100 C
b0010011 D
b00000 F
b01010 G
b00000000000000000000000000000000 I
0j
b00000000000000000000000000000000 k
1m
b00000000000000000000000000001100 n
b00000000000000000000000000000000 o
1p
#123
0p
#124
b00000000000101011000010110010011 ?
b00000000000000000000000000010000 C
b00001 F
b01011 G
b00000000000000000000000000001100 T
b00000000000000000000000000000001 k
b00000000000000000000000000001101 n
b00000000000000000000000000000001 o
1p
b00000000000000000000000000001100 r
#125
0p
#126
b11111110011001011001110011100011 ?
0@
0B
b00000000000000000000000000010100 C
b1100011 D
b00110 F
b11001 G
b00000000000000000000000000001101 H
b00000000000000000000000011111111 I
b00000000000000000000000000001101 U
1j
b11111111111111111111111111111000 k
0m
b00000000000000000000000100001100 n
b00000000000000000000000011111111 o
1p
#127
0p
#128
b00000000000001011000010100010011 ?
1@
1B
b00000000000000000000000000001100 C
b0010011 D
b00000 F
b01010 G
b00000000000000000000000000000000 I
0j
b00000000000000000000000000000000 k
1m
b00000000000000000000000000001101 n
b00000000000000000000000000000000 o
1p
#129
0p
#130
b00000000000101011000010110010011 ?
b00000000000000000000000000010000 C
b00001 F
b01011 G
b00000000000000000000000000001101 T
b00000000000000000000000000000001 k
b00000000000000000000000000001110 n
b00000000000000000000000000000001 o
1p
b00000000000000000000000000001101 r
#131
0p
#132
b11111110011001011001110011100011 ?
0@
0B
b00000000000000000000000000010100 C
b1100011 D
b00110 F
b11001 G
b00000000000000000000000000001110 H
b00000000000000000000000011111111 I
b00000000000000000000000000001110 U
1j
b11111111111111111111111111111000 k
0m
b00000000000000000000000100001101 n
b00000000000000000000000011111111 o
1p
#133
0p
#134
b00000000000001011000010100010011 ?
1@
1B
b00000000000000000000000000001100 C
b0010011 D
b00000 F
b01010 G
b00000000000000000000000000000000 I
0j
b00000000000000000000000000000000 k
1m
b00000000000000000000000000001110 n
b00000000000000000000000000000000 o
1p
#135
0p
#136
b00000000000101011000010110010011 ?
b00000000000000000000000000010000 C
b00001 F
b01011 G
b00000000000000000000000000001110 T
b00000000000000000000000000000001 k
b00000000000000000000000000001111 n
b00000000000000000000000000000001 o
1p
b00000000000000000000000000001110 r
#137
0p
#138
b11111110011001011001110011100011 ?
0@
0B
b00000000000000000000000000010100 C
b1100011 D
b00110 F
b11001 G
b00000000000000000000000000001111 H
b00000000000000000000000011111111 I
b00000000000000000000000000001111 U
1j
b11111111111111111111111111111000 k
0m
b00000000000000000000000100001110 n
b00000000000000000000000011111111 o
1p
#139
0p
#140
b00000000000001011000010100010011 ?
1@
1B
b00000000000000000000000000001100 C
b0010011 D
b00000 F
b01010 G
b00000000000000000000000000000000 I
0j
b00000000000000000000000000000000 k
1m
b00000000000000000000000000001111 n
b00000000000000000000000000000000 o
1p
#141
0p
#142
b00000000000101011000010110010011 ?
b00000000000000000000000000010000 C
b00001 F
b01011 G
b00000000000000000000000000001111 T
b00000000000000000000000000000001 k
b00000000000000000000000000010000 n
b00000000000000000000000000000001 o
1p
b00000000000000000000000000001111 r
#143
0p
#144
b11111110011001011001110011100011 ?
0@
0B
b00000000000000000000000000010100 C
b1100011 D
b00110 F
b11001 G
b00000000000000000000000000010000 H
b00000000000000000000000011111111 I
b00000000000000000000000000010000 U
1j
b11111111111111111111111111111000 k
0m
b00000000000000000000000100001111 n
b00000000000000000000000011111111 o
1p
#145
0p
#146
b00000000000001011000010100010011 ?
1@
1B
b00000000000000000000000000001100 C
b0010011 D
b00000 F
b01010 G
b00000000000000000000000000000000 I
0j
b00000000000000000000000000000000 k
1m
b00000000000000000000000000010000 n
b00000000000000000000000000000000 o
1p
#147
0p
#148
b00000000000101011000010110010011 ?
b00000000000000000000000000010000 C
b00001 F
b01011 G
b00000000000000000000000000010000 T
b00000000000000000000000000000001 k
b00000000000000000000000000010001 n
b00000000000000000000000000000001 o
1p
b00000000000000000000000000010000 r
#149
0p
#150
b11111110011001011001110011100011 ?
0@
0B
b00000000000000000000000000010100 C
b1100011 D
b00110 F
b11001 G
b00000000000000000000000000010001 H
b00000000000000000000000011111111 I
b00000000000000000000000000010001 U
1j
b11111111111111111111111111111000 k
0m
b00000000000000000000000100010000 n
b00000000000000000000000011111111 o
1p
#151
0p
